\contentsline {paragraph}{Topics:}{1}
\contentsline {paragraph}{Solo work:}{1}
\contentsline {paragraph}{Building and running:}{1}
\contentsline {paragraph}{Turn in:}{1}
\contentsline {paragraph}{Starter files:}{1}
\contentsline {paragraph}{Grading:}{1}
\contentsline {section}{\numberline {1.1}About}{3}
\contentsline {subsection}{\numberline {1.1.1}Setting up the project}{3}
\contentsline {section}{\numberline {1.2}Lab specifications}{4}
\contentsline {subsection}{\numberline {1.2.1}Adding error checking}{4}
\contentsline {subsection}{\numberline {1.2.2}Adding try/catch}{6}
