^C:\USERS\MATT.CARPENTER\DOCUMENTS\VISUAL STUDIO 2017\PROJECTS\SHIPCREATOR\SHIPCREATOR\STDAFX.CPP
C:\USERS\MATT.CARPENTER\DOCUMENTS\VISUAL STUDIO 2017\PROJECTS\SHIPCREATOR\SHIPCREATOR\DEBUG\VC141.PDB
C:\USERS\MATT.CARPENTER\DOCUMENTS\VISUAL STUDIO 2017\PROJECTS\SHIPCREATOR\SHIPCREATOR\DEBUG\VC141.IDB
C:\USERS\MATT.CARPENTER\DOCUMENTS\VISUAL STUDIO 2017\PROJECTS\SHIPCREATOR\SHIPCREATOR\DEBUG\SHIPCREATOR.PCH
C:\USERS\MATT.CARPENTER\DOCUMENTS\VISUAL STUDIO 2017\PROJECTS\SHIPCREATOR\SHIPCREATOR\DEBUG\STDAFX.OBJ
^C:\USERS\MATT.CARPENTER\DOCUMENTS\VISUAL STUDIO 2017\PROJECTS\SHIPCREATOR\SHIPCREATOR\SHIPCREATOR.CPP
C:\USERS\MATT.CARPENTER\DOCUMENTS\VISUAL STUDIO 2017\PROJECTS\SHIPCREATOR\SHIPCREATOR\DEBUG\VC141.PDB
C:\USERS\MATT.CARPENTER\DOCUMENTS\VISUAL STUDIO 2017\PROJECTS\SHIPCREATOR\SHIPCREATOR\DEBUG\VC141.IDB
^C:\USERS\MATT.CARPENTER\DOCUMENTS\VISUAL STUDIO 2017\PROJECTS\SHIPCREATOR\SHIPCREATOR\TROUBLECREATOR.CPP
C:\USERS\MATT.CARPENTER\DOCUMENTS\VISUAL STUDIO 2017\PROJECTS\SHIPCREATOR\SHIPCREATOR\DEBUG\VC141.PDB
C:\USERS\MATT.CARPENTER\DOCUMENTS\VISUAL STUDIO 2017\PROJECTS\SHIPCREATOR\SHIPCREATOR\DEBUG\VC141.IDB
C:\USERS\MATT.CARPENTER\DOCUMENTS\VISUAL STUDIO 2017\PROJECTS\SHIPCREATOR\SHIPCREATOR\DEBUG\TROUBLECREATOR.OBJ
