CAR STATS

Total cars:              4         
Tree height:             4         
Cheapest car:            30473.9        renault             infinite humboldt-penguin
Most expensive car:      76201.6        porsche             puzzling pekingese  
